Introduction to tsibble
…
weather_tsbl %>%
  group_by(origin) %>%
  index_by(date = as_date(time_hour)) %>% 
  summarise(
    temp_high = max(temp, na.rm = TRUE),
    temp_low = min(temp, na.rm = TRUE)
  )

#> # A tsibble: 1,092 x 4 [1D]
#> # Key:       origin [3]
#>   origin date       temp_high temp_low
#> * <chr>  <date>         <dbl>    <dbl>
#> 1 EWR    2013-01-01      41       28.0
#> 2 EWR    2013-01-02      34.0     24.1
#> 3 EWR    2013-01-03      34.0     26.1
#> 4 EWR    2013-01-04      39.9     28.9
#> 5 EWR    2013-01-05      44.1     32  
#> # ... with 1,087 more rows
…
The commonly used dplyr verbs, such as filter(), summarise() and mutate(), have been implemented to support the tsibble. To obtain the numerical summaries for the geographical variables, summarise() is performed in conjunction with the Region, State in the group_by(). The Purpose variable has been dropped from the key, but Region | State keeps the hierarchical structure. The tsibble summarise() never collapses the rows over the time index, which is slightly different from the dplyr summarise().

tourism %>%
  group_by(Region, State) %>%
  summarise(Geo_Trips = sum(Trips))

#> # A tsibble: 5,852 x 4 [1Q]
#> # Key:       Region | State [77]
#> # Groups:    Region [77]
#>   Region   State           Quarter Geo_Trips
#> * <chr>    <chr>             <qtr>     <dbl>
#> 1 Adelaide South Australia 1998 Q1      659.
#> 2 Adelaide South Australia 1998 Q2      450.
#> 3 Adelaide South Australia 1998 Q3      593.
#> 4 Adelaide South Australia 1998 Q4      524.
#> 5 Adelaide South Australia 1999 Q1      548.
#> # ... with 5,847 more rows
…
